ex6/fifo.vcd
$date
	Fri Feb  5 13:08:24 2016
$end
$version
	Icarus Verilog
$end
$timescale
	1s
$end
$scope module fifo_tb $end
$var wire 16 ! outdata [15:0] $end
$var wire 1 " full $end
$var wire 1 # empty $end
$var reg 1 $ clk $end
$var reg 16 % indata [15:0] $end
$var reg 1 & res_n $end
$var reg 1 ' shift_in $end
$var reg 1 ( shift_out $end
$var integer 32 ) read [31:0] $end
$var integer 32 * write [31:0] $end
$scope module fifo_I $end
$var wire 1 $ clk $end
$var wire 1 & res_n $end
$var wire 1 ' shift_in $end
$var wire 1 ( shift_out $end
$var wire 16 + wdata [15:0] $end
$var wire 1 , write_enable $end
$var wire 16 - rdata [15:0] $end
$var reg 1 # empty $end
$var reg 1 " full $end
$var reg 4 . read_ptr [3:0] $end
$var reg 4 / write_ptr [3:0] $end
$scope function incr_ptr $end
$var reg 4 0 incr_ptr [3:0] $end
$var reg 4 1 ptr [3:0] $end
$upscope $end
$scope function log2 $end
$var integer 32 2 log2 [31:0] $end
$var integer 32 3 value [31:0] $end
$upscope $end
$scope module ram_I $end
$var wire 4 4 addr_a [3:0] $end
$var wire 4 5 addr_b [3:0] $end
$var wire 1 $ clk $end
$var wire 1 , cs_a $end
$var wire 1 6 cs_b $end
$var wire 16 7 data_a [15:0] $end
$var wire 1 8 we_a $end
$var wire 1 9 we_b $end
$var wire 16 : data_b [15:0] $end
$var reg 16 ; data_out_a [15:0] $end
$var reg 16 < data_out_b [15:0] $end
$scope function log2 $end
$var integer 32 = log2 [31:0] $end
$var integer 32 > value [31:0] $end
$upscope $end
$scope begin NOP_A $end
$upscope $end
$scope begin NOP_B $end
$upscope $end
$scope begin OPERATION_A $end
$scope begin READ_A $end
$upscope $end
$scope begin WRITE_A $end
$upscope $end
$upscope $end
$scope begin OPERATION_B $end
$scope begin READ_B $end
$upscope $end
$scope begin WRITE_B $end
$upscope $end
$upscope $end
$scope begin ram_verbose $end
$var reg 4 ? j [3:0] $end
$upscope $end
$upscope $end
$upscope $end
$scope task check_fifo $end
$var reg 1 @ empty $end
$var reg 1 A expected_empty $end
$var reg 1 B expected_full $end
$var reg 16 C expected_outdata [15:0] $end
$var reg 1 D full $end
$var reg 16 E outdata [15:0] $end
$var reg 1 F shift_out $end
$upscope $end
$scope task defeat $end
$upscope $end
$scope task fail $end
$upscope $end
$scope task pass $end
$upscope $end
$scope task resync $end
$upscope $end
$scope task success $end
$upscope $end
$upscope $end
$enddefinitions $end
#0
$dumpvars
xF
bx E
xD
bx C
xB
xA
x@
bx ?
bx >
bx =
bx <
b0 ;
bx :
09
18
b0 7
16
b0 5
b0 4
bx 3
bx 2
bx 1
bx 0
b0 /
b0 .
bx -
0,
b0 +
b11111111111111111111111111111111 *
b0 )
0(
0'
0&
b0 %
1$
1#
0"
bx !
$end
#2
b1001 ?
#5
1,
b1010111111111110 +
b1010111111111110 7
b1010111111111110 %
1'
1&
b0 *
1A
0B
1@
0D
0F
0$
#10
b1010111111111110 !
b1010111111111110 -
b1010111111111110 :
0#
b1 /
b1 4
b1 0
b0 1
1$
#12
b1001 ?
#15
b1100101011111110 +
b1100101011111110 7
b1100101011111110 %
0$
b1 *
0A
b1010111111111110 C
0@
b1010111111111110 E
#20
b1010111111111110 <
b10 /
b10 4
b10 0
b1 1
1$
#22
b1001 ?
#25
b1011101010111110 +
b1011101010111110 7
b1011101010111110 %
0$
b10 *
#30
b11 /
b11 4
b11 0
b10 1
1$
#32
b1001 ?
#35
b1011000000001011 +
b1011000000001011 7
b1011000000001011 %
0$
b11 *
#40
b100 /
b100 4
b100 0
b11 1
1$
#42
b1001 ?
#45
b1100000000000001 +
b1100000000000001 7
b1100000000000001 %
0$
b100 *
#50
b101 /
b101 4
b101 0
b100 1
1$
#52
b1001 ?
#55
b1111000000001101 +
b1111000000001101 7
b1111000000001101 %
0$
b101 *
#60
b110 /
b110 4
b110 0
b101 1
1$
#62
b1001 ?
#65
b1101111010101101 +
b1101111010101101 7
b1101111010101101 %
0$
b110 *
#70
b111 /
b111 4
b111 0
b110 1
1$
#72
b1001 ?
#75
b1011111011101111 +
b1011111011101111 7
b1011111011101111 %
0$
b111 *
#80
b1000 /
b1000 4
b1000 0
b111 1
1$
#82
b1001 ?
#85
b1100000011011110 +
b1100000011011110 7
b1100000011011110 %
0$
b1000 *
#90
b1001 /
b1001 4
b1001 0
b1000 1
1$
#92
b1001 ?
#95
b1111101000010001 +
b1111101000010001 7
b1111101000010001 %
0$
b1001 *
#100
0,
1"
b0 /
b0 4
b0 0
b1001 1
1$
#102
b1001 ?
#105
0'
0$
1B
1D
#110
1$
#112
b1001 ?
#115
0$
#120
1$
#122
b1001 ?
#125
0$
#130
1$
#132
b1001 ?
#135
0$
#140
1$
#142
b1001 ?
#145
0$
#150
1$
#152
b1001 ?
#155
1(
0$
b1 )
#160
b1100101011111110 !
b1100101011111110 -
b1100101011111110 :
0"
b1 .
b1 5
b1 0
b0 1
1$
#162
b1001 ?
#165
0$
b10 )
0B
b1100101011111110 C
0D
b1100101011111110 E
1F
#170
b1011101010111110 !
b1011101010111110 -
b1011101010111110 :
b1100101011111110 <
b10 .
b10 5
b10 0
b1 1
1$
#172
b1001 ?
#175
0$
b11 )
b1011101010111110 C
b1011101010111110 E
#180
b1011000000001011 !
b1011000000001011 -
b1011000000001011 :
b1011101010111110 <
b11 .
b11 5
b11 0
b10 1
1$
#182
b1001 ?
#185
0$
b100 )
b1011000000001011 C
b1011000000001011 E
#190
b1100000000000001 !
b1100000000000001 -
b1100000000000001 :
b1011000000001011 <
b100 .
b100 5
b100 0
b11 1
1$
#192
b1001 ?
#195
0$
b101 )
b1100000000000001 C
b1100000000000001 E
#200
b1111000000001101 !
b1111000000001101 -
b1111000000001101 :
b1100000000000001 <
b101 .
b101 5
b101 0
b100 1
1$
#202
b1001 ?
#205
0$
b110 )
b1111000000001101 C
b1111000000001101 E
#210
b1101111010101101 !
b1101111010101101 -
b1101111010101101 :
b1111000000001101 <
b110 .
b110 5
b110 0
b101 1
1$
#212
b1001 ?
#215
0$
b111 )
b1101111010101101 C
b1101111010101101 E
#220
b1011111011101111 !
b1011111011101111 -
b1011111011101111 :
b1101111010101101 <
b111 .
b111 5
b111 0
b110 1
1$
#222
b1001 ?
#225
0$
b1000 )
b1011111011101111 C
b1011111011101111 E
#230
b1100000011011110 !
b1100000011011110 -
b1100000011011110 :
b1011111011101111 <
b1000 .
b1000 5
b1000 0
b111 1
1$
#232
b1001 ?
#235
0$
b1001 )
b1100000011011110 C
b1100000011011110 E
#240
b1111101000010001 !
b1111101000010001 -
b1111101000010001 :
b1100000011011110 <
b1001 .
b1001 5
b1001 0
b1000 1
1$
#242
b1001 ?
#245
0$
b1010 )
b1111101000010001 C
b1111101000010001 E
#250
b1010111111111110 !
b1010111111111110 -
b1010111111111110 :
b1111101000010001 <
1#
b0 .
b0 5
b0 0
b1001 1
1$
#252
b1001 ?
#255
1,
0(
b1111101011001110 +
b1111101011001110 7
b1111101011001110 %
1'
0$
b1010 *
1A
bx C
1@
b1010111111111110 E
#260
b1111101011001110 !
b1111101011001110 -
b1111101011001110 :
b1010111111111110 <
0#
b1 /
b1 4
b1 0
b0 1
1$
#262
b1001 ?
#265
b1111111011100001 +
b1111111011100001 7
b1111111011100001 %
0$
b1011 *
0A
b1111101011001110 C
0@
b1111101011001110 E
0F
#270
b1111101011001110 <
b10 /
b10 4
b10 0
b1 1
1$
#272
b1001 ?
#275
b100100011 +
b100100011 7
b100100011 %
0$
b1100 *
#280
b11 /
b11 4
b11 0
b10 1
1$
#282
b1001 ?
#285
b100010101100111 +
b100010101100111 7
b100010101100111 %
0$
b1101 *
#290
b100 /
b100 4
b100 0
b11 1
1$
#292
b1001 ?
#295
b1000100110101011 +
b1000100110101011 7
b1000100110101011 %
0$
b1110 *
#300
b101 /
b101 4
b101 0
b100 1
1$
#302
b1001 ?
#305
0,
0'
0$
#310
1$
#312
b1001 ?
#315
0$
#320
1$
#322
b1001 ?
#325
0$
#330
1$
#332
b1001 ?
#335
0$
#340
1$
#342
b1001 ?
#345
0$
#350
1$
#352
b1001 ?
#355
1(
0$
b1011 )
#360
b1111111011100001 !
b1111111011100001 -
b1111111011100001 :
b1 .
b1 5
b1 0
b0 1
1$
#362
b1001 ?
#365
0$
b1100 )
b1111111011100001 C
b1111111011100001 E
1F
#370
b100100011 !
b100100011 -
b100100011 :
b1111111011100001 <
b10 .
b10 5
b10 0
b1 1
1$
#372
b1001 ?
#375
0$
b1101 )
b100100011 C
b100100011 E
#380
b100010101100111 !
b100010101100111 -
b100010101100111 :
b100100011 <
b11 .
b11 5
b11 0
b10 1
1$
#382
b1001 ?
#385
0$
b1110 )
b100010101100111 C
b100010101100111 E
#390
b1000100110101011 !
b1000100110101011 -
b1000100110101011 :
b100010101100111 <
b100 .
b100 5
b100 0
b11 1
1$
#392
b1001 ?
#395
0$
b1111 )
b1000100110101011 C
b1000100110101011 E
#400
b1111000000001101 !
b1111000000001101 -
b1111000000001101 :
b1000100110101011 <
1#
b101 .
b101 5
b101 0
b100 1
1$
#402
b1001 ?
#405
0(
0$
1A
b1100110111101111 C
1@
b1111000000001101 E
#410
b1111000000001101 <
1$
#412
b1001 ?
#415
0$
bx C
0F
#420
1$
#422
b1001 ?
#425
0$
#430
1$
#432
b1001 ?
#435
0$
#440
1$
#442
b1001 ?
#445
0$
#450
1$
#452
b1001 ?
#455
1(
0$
#460
1$
#462
b1001 ?
#465
0$
1F
#470
1$
#472
b1001 ?
#475
0$
#480
1$
#482
b1001 ?
#485
0$
#490
1$
#492
b1001 ?
#495
0$
#500
1$
#502
b1001 ?
#505
1,
0(
b1010111111111110 +
b1010111111111110 7
b1010111111111110 %
1'
0$
b0 )
b0 *
#510
b1010111111111110 !
b1010111111111110 -
b1010111111111110 :
0#
b110 /
b110 4
b110 0
b101 1
1$
#512
b1001 ?
#515
b1100101011111110 +
b1100101011111110 7
b1100101011111110 %
0$
b1 *
0A
b1010111111111110 C
0@
b1010111111111110 E
0F
#520
b1010111111111110 <
b111 /
b111 4
b111 0
b110 1
1$
#522
b1001 ?
#525
b1011101010111110 +
b1011101010111110 7
b1011101010111110 %
0$
b10 *
#530
b1000 /
b1000 4
b1000 0
b111 1
1$
#532
b1001 ?
#535
b1011000000001011 +
b1011000000001011 7
b1011000000001011 %
0$
b11 *
#540
b1001 /
b1001 4
b1001 0
b1000 1
1$
#542
b1001 ?
#545
b1100000000000001 +
b1100000000000001 7
b1100000000000001 %
0$
b100 *
#550
b0 /
b0 4
b0 0
b1001 1
1$
#552
b1001 ?
#555
b1111000000001101 +
b1111000000001101 7
b1111000000001101 %
0$
b101 *
#560
b1 /
b1 4
b1 0
b0 1
1$
#562
b1001 ?
#565
b1101111010101101 +
b1101111010101101 7
b1101111010101101 %
0$
b110 *
#570
b10 /
b10 4
b10 0
b1 1
1$
#572
b1001 ?
#575
b1011111011101111 +
b1011111011101111 7
b1011111011101111 %
0$
b111 *
#580
b11 /
b11 4
b11 0
b10 1
1$
#582
b1001 ?
#585
b1100000011011110 +
b1100000011011110 7
b1100000011011110 %
0$
b1000 *
#590
b100 /
b100 4
b100 0
b11 1
1$
#592
b1001 ?
#595
b1111101000010001 +
b1111101000010001 7
b1111101000010001 %
0$
b1001 *
#600
0,
1"
b101 /
b101 4
b101 0
b100 1
1$
#602
b1001 ?
#605
0$
1B
1D
#610
1$
#612
b1001 ?
#615
0$
#620
1$
#622
b1001 ?
#625
0$
#630
1$
#632
b1001 ?
#635
0$
#640
1$
#642
b1001 ?
#645
0$
#650
1$
#652
b1001 ?
#655
1(
0'
0$
b1 )
#660
b1100101011111110 !
b1100101011111110 -
b1100101011111110 :
0"
b110 .
b110 5
b110 0
b101 1
1$
#662
b1001 ?
#665
0$
b10 )
0B
b1100101011111110 C
0D
b1100101011111110 E
1F
#670
b1011101010111110 !
b1011101010111110 -
b1011101010111110 :
b1100101011111110 <
b111 .
b111 5
b111 0
b110 1
1$
#672
b1001 ?
#675
0$
b11 )
b1011101010111110 C
b1011101010111110 E
#680
b1011000000001011 !
b1011000000001011 -
b1011000000001011 :
b1011101010111110 <
b1000 .
b1000 5
b1000 0
b111 1
1$
#682
b1001 ?
#685
0$
b100 )
b1011000000001011 C
b1011000000001011 E
#690
b1100000000000001 !
b1100000000000001 -
b1100000000000001 :
b1011000000001011 <
b1001 .
b1001 5
b1001 0
b1000 1
1$
#692
b1001 ?
#695
0$
b101 )
b1100000000000001 C
b1100000000000001 E
#700
b1111000000001101 !
b1111000000001101 -
b1111000000001101 :
b1100000000000001 <
b0 .
b0 5
b0 0
b1001 1
1$
#702
b1001 ?
#705
0$
b110 )
b1111000000001101 C
b1111000000001101 E
#710
b1101111010101101 !
b1101111010101101 -
b1101111010101101 :
b1111000000001101 <
b1 .
b1 5
b1 0
b0 1
1$
#712
b1001 ?
#715
0$
b111 )
b1101111010101101 C
b1101111010101101 E
#720
b1011111011101111 !
b1011111011101111 -
b1011111011101111 :
b1101111010101101 <
b10 .
b10 5
b10 0
b1 1
1$
#722
b1001 ?
#725
0$
b1000 )
b1011111011101111 C
b1011111011101111 E
#730
b1100000011011110 !
b1100000011011110 -
b1100000011011110 :
b1011111011101111 <
b11 .
b11 5
b11 0
b10 1
1$
#732
b1001 ?
#735
0$
b1001 )
b1100000011011110 C
b1100000011011110 E
#740
b1111101000010001 !
b1111101000010001 -
b1111101000010001 :
b1100000011011110 <
b100 .
b100 5
b100 0
b11 1
1$
#742
b1001 ?
#745
0$
b1010 )
b1111101000010001 C
b1111101000010001 E
#750
b1010111111111110 !
b1010111111111110 -
b1010111111111110 :
b1111101000010001 <
1#
b101 .
b101 5
b101 0
b100 1
1$
#752
b1001 ?
#755
0(
0$
1A
b0 C
1@
b1010111111111110 E
#760
b1010111111111110 <
1$
#762
b1001 ?
#765
0$
#767
b1111000000001101 !
b1111000000001101 -
b1111000000001101 :
b0 .
b0 5
b0 /
b0 4
0&
#768
1&
#770
b1111000000001101 <
1$
#772
b1001 ?
#775
1,
b1100101011111110 +
b1100101011111110 7
b1100101011111110 %
1'
0$
b0 )
b1 *
b1111000000001101 E
0F
#780
b1100101011111110 !
b1100101011111110 -
b1100101011111110 :
0#
b1 /
b1 4
b1 0
b0 1
1$
#782
b1001 ?
#785
0$
0A
b1010111111111110 C
0@
b1100101011111110 E
